{
	"views": // List all the views we want in the world.
	[
		{
			"type": "registered", // A registered View must be registered on the world::Loader. See ControlApplication::loadWorldFile.
			"registeredIndex": 0, // The index of the registered View must match the View registered in ControlApplication::loadWorldFile.
			"controlledActor": 1 // Control the Actor at index 1 in the "actors" array (Suttung).
		}
	],
	"actors":
	[
		{
			"extend": "Nox"
		},
		{
			"extend": "Suttung"
		}
	]
}
